<?xml version="1.0" encoding="UTF-8" standalone="no"?>
<!-- Created with Inkscape (http://www.inkscape.org/) -->

<svg
   xmlns:dc="http://purl.org/dc/elements/1.1/"
   xmlns:cc="http://creativecommons.org/ns#"
   xmlns:rdf="http://www.w3.org/1999/02/22-rdf-syntax-ns#"
   xmlns:svg="http://www.w3.org/2000/svg"
   xmlns="http://www.w3.org/2000/svg"
   xmlns:sodipodi="http://sodipodi.sourceforge.net/DTD/sodipodi-0.dtd"
   xmlns:inkscape="http://www.inkscape.org/namespaces/inkscape"
   width="216.84224mm"
   height="142.12976mm"
   viewBox="0 0 216.84225 142.12976"
   version="1.1"
   id="svg8"
   inkscape:version="0.92+devel (unknown)"
   sodipodi:docname="Activities.svg"
   inkscape:export-filename="/home/bob/Desktop/temp/Sergej/codeSergej/Activities.png"
   inkscape:export-xdpi="600"
   inkscape:export-ydpi="600">
  <defs
     id="defs2">
    <marker
       inkscape:stockid="Arrow1Lend"
       orient="auto"
       refY="0"
       refX="0"
       id="marker9969"
       style="overflow:visible"
       inkscape:isstock="true">
      <path
         id="path9967"
         d="M 0,0 5,-5 -12.5,0 5,5 Z"
         style="fill:#ff6600;fill-opacity:1;fill-rule:evenodd;stroke:#ff6600;stroke-width:1.00000003pt;stroke-opacity:1"
         transform="matrix(-0.8,0,0,-0.8,-10,0)"
         inkscape:connector-curvature="0" />
    </marker>
    <marker
       inkscape:stockid="Arrow1Lend"
       orient="auto"
       refY="0"
       refX="0"
       id="marker9809"
       style="overflow:visible"
       inkscape:isstock="true">
      <path
         id="path9807"
         d="M 0,0 5,-5 -12.5,0 5,5 Z"
         style="fill:#ff6600;fill-opacity:1;fill-rule:evenodd;stroke:#ff6600;stroke-width:1.00000003pt;stroke-opacity:1"
         transform="matrix(-0.8,0,0,-0.8,-10,0)"
         inkscape:connector-curvature="0" />
    </marker>
    <marker
       inkscape:stockid="Arrow1Lend"
       orient="auto"
       refY="0"
       refX="0"
       id="marker9655"
       style="overflow:visible"
       inkscape:isstock="true">
      <path
         id="path9653"
         d="M 0,0 5,-5 -12.5,0 5,5 Z"
         style="fill:#ff6600;fill-opacity:1;fill-rule:evenodd;stroke:#ff6600;stroke-width:1.00000003pt;stroke-opacity:1"
         transform="matrix(-0.8,0,0,-0.8,-10,0)"
         inkscape:connector-curvature="0" />
    </marker>
    <inkscape:path-effect
       effect="bspline"
       id="path-effect9639"
       is_visible="true"
       weight="33.333333"
       steps="2"
       helper_size="0"
       apply_no_weight="true"
       apply_with_weight="true"
       only_selected="false" />
    <inkscape:path-effect
       effect="bspline"
       id="path-effect9635"
       is_visible="true"
       weight="33.333333"
       steps="2"
       helper_size="0"
       apply_no_weight="true"
       apply_with_weight="true"
       only_selected="false" />
    <inkscape:path-effect
       effect="bspline"
       id="path-effect9631"
       is_visible="true"
       weight="33.333333"
       steps="2"
       helper_size="0"
       apply_no_weight="true"
       apply_with_weight="true"
       only_selected="false" />
    <inkscape:path-effect
       effect="bspline"
       id="path-effect9627"
       is_visible="true"
       weight="33.333333"
       steps="2"
       helper_size="0"
       apply_no_weight="true"
       apply_with_weight="true"
       only_selected="false" />
    <marker
       inkscape:isstock="true"
       style="overflow:visible"
       id="marker8914"
       refX="0"
       refY="0"
       orient="auto"
       inkscape:stockid="Arrow1Lend"
       inkscape:collect="always">
      <path
         inkscape:connector-curvature="0"
         transform="matrix(-0.8,0,0,-0.8,-10,0)"
         style="fill:#ff6600;fill-opacity:1;fill-rule:evenodd;stroke:#ff6600;stroke-width:1.00000003pt;stroke-opacity:1"
         d="M 0,0 5,-5 -12.5,0 5,5 Z"
         id="path8912" />
    </marker>
    <inkscape:path-effect
       effect="bspline"
       id="path-effect8904"
       is_visible="true"
       weight="33.333333"
       steps="2"
       helper_size="0"
       apply_no_weight="true"
       apply_with_weight="true"
       only_selected="false" />
    <inkscape:path-effect
       effect="bspline"
       id="path-effect8010"
       is_visible="true"
       weight="33.333333"
       steps="2"
       helper_size="0"
       apply_no_weight="true"
       apply_with_weight="true"
       only_selected="false" />
    <marker
       inkscape:stockid="Arrow1Send"
       orient="auto"
       refY="0"
       refX="0"
       id="marker1389"
       style="overflow:visible"
       inkscape:isstock="true">
      <path
         inkscape:connector-curvature="0"
         id="path1387"
         d="M 0,0 5,-5 -12.5,0 5,5 Z"
         style="fill:#008000;fill-opacity:1;fill-rule:evenodd;stroke:#008000;stroke-width:1.00000003pt;stroke-opacity:1"
         transform="matrix(-0.2,0,0,-0.2,-1.2,0)" />
    </marker>
    <inkscape:path-effect
       effect="bspline"
       id="path-effect3763"
       is_visible="true"
       weight="33.333333"
       steps="2"
       helper_size="0"
       apply_no_weight="true"
       apply_with_weight="true"
       only_selected="false" />
    <marker
       inkscape:stockid="Arrow1Lend"
       orient="auto"
       refY="0"
       refX="0"
       id="marker3165"
       style="overflow:visible"
       inkscape:isstock="true">
      <path
         id="path3163"
         d="M 0,0 5,-5 -12.5,0 5,5 Z"
         style="fill:#ff6600;fill-opacity:1;fill-rule:evenodd;stroke:#ff6600;stroke-width:1.00000003pt;stroke-opacity:1"
         transform="matrix(-0.8,0,0,-0.8,-10,0)"
         inkscape:connector-curvature="0" />
    </marker>
    <inkscape:path-effect
       only_selected="false"
       apply_with_weight="true"
       apply_no_weight="true"
       helper_size="0"
       steps="2"
       weight="33.333333"
       is_visible="true"
       id="path-effect3161"
       effect="bspline" />
    <marker
       inkscape:isstock="true"
       style="overflow:visible"
       id="marker2929"
       refX="0"
       refY="0"
       orient="auto"
       inkscape:stockid="Arrow1Send">
      <path
         inkscape:connector-curvature="0"
         transform="matrix(-0.2,0,0,-0.2,-1.2,0)"
         style="fill:#008000;fill-opacity:1;fill-rule:evenodd;stroke:#008000;stroke-width:1.00000003pt;stroke-opacity:1"
         d="M 0,0 5,-5 -12.5,0 5,5 Z"
         id="path2927" />
    </marker>
    <marker
       inkscape:stockid="Arrow1Send"
       orient="auto"
       refY="0"
       refX="0"
       id="marker1712"
       style="overflow:visible"
       inkscape:isstock="true">
      <path
         inkscape:connector-curvature="0"
         id="path1710"
         d="M 0,0 5,-5 -12.5,0 5,5 Z"
         style="fill:#008000;fill-opacity:1;fill-rule:evenodd;stroke:#008000;stroke-width:1.00000003pt;stroke-opacity:1"
         transform="matrix(-0.2,0,0,-0.2,-1.2,0)" />
    </marker>
    <inkscape:path-effect
       only_selected="false"
       apply_with_weight="true"
       apply_no_weight="true"
       helper_size="0"
       steps="2"
       weight="33.333333"
       is_visible="true"
       id="path-effect1708"
       effect="bspline" />
    <inkscape:path-effect
       effect="bspline"
       id="path-effect1704"
       is_visible="true"
       weight="33.333333"
       steps="2"
       helper_size="0"
       apply_no_weight="true"
       apply_with_weight="true"
       only_selected="false" />
    <inkscape:path-effect
       only_selected="false"
       apply_with_weight="true"
       apply_no_weight="true"
       helper_size="0"
       steps="2"
       weight="33.333333"
       is_visible="true"
       id="path-effect1599"
       effect="bspline" />
    <inkscape:path-effect
       effect="bspline"
       id="path-effect1596"
       is_visible="true"
       weight="33.333333"
       steps="2"
       helper_size="0"
       apply_no_weight="true"
       apply_with_weight="true"
       only_selected="false" />
    <inkscape:path-effect
       only_selected="false"
       apply_with_weight="true"
       apply_no_weight="true"
       helper_size="0"
       steps="2"
       weight="33.333333"
       is_visible="true"
       id="path-effect1593"
       effect="bspline" />
    <inkscape:path-effect
       effect="bspline"
       id="path-effect1590"
       is_visible="true"
       weight="33.333333"
       steps="2"
       helper_size="0"
       apply_no_weight="true"
       apply_with_weight="true"
       only_selected="false" />
    <marker
       inkscape:stockid="Arrow1Send"
       orient="auto"
       refY="0"
       refX="0"
       id="marker7161"
       style="overflow:visible"
       inkscape:isstock="true">
      <path
         inkscape:connector-curvature="0"
         id="path7159"
         d="M 0,0 5,-5 -12.5,0 5,5 Z"
         style="fill:#008000;fill-opacity:1;fill-rule:evenodd;stroke:#008000;stroke-width:1.00000003pt;stroke-opacity:1"
         transform="matrix(-0.2,0,0,-0.2,-1.2,0)" />
    </marker>
    <inkscape:path-effect
       effect="bspline"
       id="path-effect6991"
       is_visible="true"
       weight="33.333333"
       steps="2"
       helper_size="0"
       apply_no_weight="true"
       apply_with_weight="true"
       only_selected="false" />
    <marker
       inkscape:isstock="true"
       style="overflow:visible"
       id="marker2991"
       refX="0"
       refY="0"
       orient="auto"
       inkscape:stockid="Arrow1Lend">
      <path
         inkscape:connector-curvature="0"
         transform="matrix(-0.8,0,0,-0.8,-10,0)"
         style="fill:#ff6600;fill-opacity:1;fill-rule:evenodd;stroke:#ff6600;stroke-width:1.00000003pt;stroke-opacity:1"
         d="M 0,0 5,-5 -12.5,0 5,5 Z"
         id="path2989" />
    </marker>
    <inkscape:path-effect
       effect="bspline"
       id="path-effect2981"
       is_visible="true"
       weight="33.333333"
       steps="2"
       helper_size="0"
       apply_no_weight="true"
       apply_with_weight="true"
       only_selected="false" />
    <inkscape:path-effect
       effect="bspline"
       id="path-effect2977"
       is_visible="true"
       weight="33.333333"
       steps="2"
       helper_size="0"
       apply_no_weight="true"
       apply_with_weight="true"
       only_selected="false" />
    <marker
       inkscape:isstock="true"
       style="overflow:visible"
       id="marker2309"
       refX="0"
       refY="0"
       orient="auto"
       inkscape:stockid="Arrow1Lend">
      <path
         inkscape:connector-curvature="0"
         transform="matrix(-0.8,0,0,-0.8,-10,0)"
         style="fill:#ff6600;fill-opacity:1;fill-rule:evenodd;stroke:#ff6600;stroke-width:1.00000003pt;stroke-opacity:1"
         d="M 0,0 5,-5 -12.5,0 5,5 Z"
         id="path2307" />
    </marker>
    <marker
       inkscape:isstock="true"
       style="overflow:visible"
       id="marker2125"
       refX="0"
       refY="0"
       orient="auto"
       inkscape:stockid="Arrow1Lend">
      <path
         inkscape:connector-curvature="0"
         transform="matrix(-0.8,0,0,-0.8,-10,0)"
         style="fill:#ff6600;fill-opacity:1;fill-rule:evenodd;stroke:#ff6600;stroke-width:1.00000003pt;stroke-opacity:1"
         d="M 0,0 5,-5 -12.5,0 5,5 Z"
         id="path2123" />
    </marker>
    <marker
       inkscape:isstock="true"
       style="overflow:visible"
       id="marker2117"
       refX="0"
       refY="0"
       orient="auto"
       inkscape:stockid="Arrow1Lend">
      <path
         inkscape:connector-curvature="0"
         transform="matrix(-0.8,0,0,-0.8,-10,0)"
         style="fill:#ff6600;fill-opacity:1;fill-rule:evenodd;stroke:#ff6600;stroke-width:1.00000003pt;stroke-opacity:1"
         d="M 0,0 5,-5 -12.5,0 5,5 Z"
         id="path2115" />
    </marker>
    <marker
       inkscape:isstock="true"
       style="overflow:visible"
       id="marker2113"
       refX="0"
       refY="0"
       orient="auto"
       inkscape:stockid="Arrow1Lend">
      <path
         inkscape:connector-curvature="0"
         transform="matrix(-0.8,0,0,-0.8,-10,0)"
         style="fill:#ff6600;fill-opacity:1;fill-rule:evenodd;stroke:#ff6600;stroke-width:1.00000003pt;stroke-opacity:1"
         d="M 0,0 5,-5 -12.5,0 5,5 Z"
         id="path2111" />
    </marker>
    <marker
       inkscape:isstock="true"
       style="overflow:visible"
       id="marker2109"
       refX="0"
       refY="0"
       orient="auto"
       inkscape:stockid="Arrow1Lend">
      <path
         inkscape:connector-curvature="0"
         transform="matrix(-0.8,0,0,-0.8,-10,0)"
         style="fill:#ff6600;fill-opacity:1;fill-rule:evenodd;stroke:#ff6600;stroke-width:1.00000003pt;stroke-opacity:1"
         d="M 0,0 5,-5 -12.5,0 5,5 Z"
         id="path2107" />
    </marker>
    <marker
       inkscape:isstock="true"
       style="overflow:visible"
       id="marker2105"
       refX="0"
       refY="0"
       orient="auto"
       inkscape:stockid="Arrow1Lend">
      <path
         inkscape:connector-curvature="0"
         transform="matrix(-0.8,0,0,-0.8,-10,0)"
         style="fill:#ff6600;fill-opacity:1;fill-rule:evenodd;stroke:#ff6600;stroke-width:1.00000003pt;stroke-opacity:1"
         d="M 0,0 5,-5 -12.5,0 5,5 Z"
         id="path2103" />
    </marker>
    <marker
       inkscape:isstock="true"
       style="overflow:visible"
       id="marker1917"
       refX="0"
       refY="0"
       orient="auto"
       inkscape:stockid="Arrow1Send">
      <path
         inkscape:connector-curvature="0"
         transform="matrix(-0.2,0,0,-0.2,-1.2,0)"
         style="fill:#ff6600;fill-opacity:1;fill-rule:evenodd;stroke:#ff6600;stroke-width:1.00000003pt;stroke-opacity:1"
         d="M 0,0 5,-5 -12.5,0 5,5 Z"
         id="path1915" />
    </marker>
    <marker
       inkscape:isstock="true"
       style="overflow:visible"
       id="marker1747"
       refX="0"
       refY="0"
       orient="auto"
       inkscape:stockid="Arrow1Send">
      <path
         transform="matrix(-0.2,0,0,-0.2,-1.2,0)"
         style="fill:#ff6600;fill-opacity:1;fill-rule:evenodd;stroke:#ff6600;stroke-width:1.00000003pt;stroke-opacity:1"
         d="M 0,0 5,-5 -12.5,0 5,5 Z"
         id="path1745"
         inkscape:connector-curvature="0" />
    </marker>
    <marker
       inkscape:isstock="true"
       style="overflow:visible"
       id="marker1576"
       refX="0"
       refY="0"
       orient="auto"
       inkscape:stockid="Arrow1Send">
      <path
         transform="matrix(-0.2,0,0,-0.2,-1.2,0)"
         style="fill:#ff6600;fill-opacity:1;fill-rule:evenodd;stroke:#ff6600;stroke-width:1.00000003pt;stroke-opacity:1"
         d="M 0,0 5,-5 -12.5,0 5,5 Z"
         id="path1574"
         inkscape:connector-curvature="0" />
    </marker>
    <marker
       inkscape:isstock="true"
       style="overflow:visible"
       id="marker1572"
       refX="0"
       refY="0"
       orient="auto"
       inkscape:stockid="Arrow1Send">
      <path
         transform="matrix(-0.2,0,0,-0.2,-1.2,0)"
         style="fill:#ff6600;fill-opacity:1;fill-rule:evenodd;stroke:#ff6600;stroke-width:1.00000003pt;stroke-opacity:1"
         d="M 0,0 5,-5 -12.5,0 5,5 Z"
         id="path1570"
         inkscape:connector-curvature="0" />
    </marker>
    <marker
       inkscape:isstock="true"
       style="overflow:visible"
       id="marker1568"
       refX="0"
       refY="0"
       orient="auto"
       inkscape:stockid="Arrow1Send">
      <path
         transform="matrix(-0.2,0,0,-0.2,-1.2,0)"
         style="fill:#ff6600;fill-opacity:1;fill-rule:evenodd;stroke:#ff6600;stroke-width:1.00000003pt;stroke-opacity:1"
         d="M 0,0 5,-5 -12.5,0 5,5 Z"
         id="path1566"
         inkscape:connector-curvature="0" />
    </marker>
    <marker
       inkscape:isstock="true"
       style="overflow:visible"
       id="marker1564"
       refX="0"
       refY="0"
       orient="auto"
       inkscape:stockid="Arrow1Send">
      <path
         transform="matrix(-0.2,0,0,-0.2,-1.2,0)"
         style="fill:#ff6600;fill-opacity:1;fill-rule:evenodd;stroke:#ff6600;stroke-width:1.00000003pt;stroke-opacity:1"
         d="M 0,0 5,-5 -12.5,0 5,5 Z"
         id="path1562"
         inkscape:connector-curvature="0" />
    </marker>
    <inkscape:path-effect
       effect="bspline"
       id="path-effect1295"
       is_visible="true"
       weight="33.333333"
       steps="2"
       helper_size="0"
       apply_no_weight="true"
       apply_with_weight="true"
       only_selected="false" />
    <inkscape:path-effect
       effect="bspline"
       id="path-effect1291"
       is_visible="true"
       weight="33.333333"
       steps="2"
       helper_size="0"
       apply_no_weight="true"
       apply_with_weight="true"
       only_selected="false" />
    <inkscape:path-effect
       effect="bspline"
       id="path-effect1287"
       is_visible="true"
       weight="33.333333"
       steps="2"
       helper_size="0"
       apply_no_weight="true"
       apply_with_weight="true"
       only_selected="false" />
    <inkscape:path-effect
       effect="bspline"
       id="path-effect1283"
       is_visible="true"
       weight="33.333333"
       steps="2"
       helper_size="0"
       apply_no_weight="true"
       apply_with_weight="true"
       only_selected="false" />
    <inkscape:path-effect
       effect="bspline"
       id="path-effect1279"
       is_visible="true"
       weight="33.333333"
       steps="2"
       helper_size="0"
       apply_no_weight="true"
       apply_with_weight="true"
       only_selected="false" />
    <inkscape:path-effect
       effect="bspline"
       id="path-effect1275"
       is_visible="true"
       weight="33.333333"
       steps="2"
       helper_size="0"
       apply_no_weight="true"
       apply_with_weight="true"
       only_selected="false" />
    <inkscape:path-effect
       effect="bspline"
       id="path-effect1271"
       is_visible="true"
       weight="33.333333"
       steps="2"
       helper_size="0"
       apply_no_weight="true"
       apply_with_weight="true"
       only_selected="false" />
    <inkscape:path-effect
       effect="bspline"
       id="path-effect1267"
       is_visible="true"
       weight="33.333333"
       steps="2"
       helper_size="0"
       apply_no_weight="true"
       apply_with_weight="true"
       only_selected="false" />
    <marker
       inkscape:stockid="Arrow1Send"
       orient="auto"
       refY="0"
       refX="0"
       id="marker1263"
       style="overflow:visible"
       inkscape:isstock="true">
      <path
         id="path1261"
         d="M 0,0 5,-5 -12.5,0 5,5 Z"
         style="fill:#008000;fill-opacity:1;fill-rule:evenodd;stroke:#008000;stroke-width:1.00000003pt;stroke-opacity:1"
         transform="matrix(-0.2,0,0,-0.2,-1.2,0)"
         inkscape:connector-curvature="0" />
    </marker>
    <inkscape:path-effect
       effect="bspline"
       id="path-effect1259"
       is_visible="true"
       weight="33.333333"
       steps="2"
       helper_size="0"
       apply_no_weight="true"
       apply_with_weight="true"
       only_selected="false" />
    <marker
       inkscape:isstock="true"
       style="overflow:visible"
       id="marker10490"
       refX="0"
       refY="0"
       orient="auto"
       inkscape:stockid="Arrow1Send">
      <path
         transform="matrix(-0.2,0,0,-0.2,-1.2,0)"
         style="fill:#008000;fill-opacity:1;fill-rule:evenodd;stroke:#008000;stroke-width:1.00000003pt;stroke-opacity:1"
         d="M 0,0 5,-5 -12.5,0 5,5 Z"
         id="path10488"
         inkscape:connector-curvature="0" />
    </marker>
    <inkscape:path-effect
       only_selected="false"
       apply_with_weight="true"
       apply_no_weight="true"
       helper_size="0"
       steps="2"
       weight="33.333333"
       is_visible="true"
       id="path-effect10486"
       effect="bspline" />
    <inkscape:path-effect
       effect="bspline"
       id="path-effect9846"
       is_visible="true"
       weight="33.333333"
       steps="2"
       helper_size="0"
       apply_no_weight="true"
       apply_with_weight="true"
       only_selected="false" />
    <inkscape:path-effect
       only_selected="false"
       apply_with_weight="true"
       apply_no_weight="true"
       helper_size="0"
       steps="2"
       weight="33.333333"
       is_visible="true"
       id="path-effect9550"
       effect="bspline" />
    <inkscape:path-effect
       effect="bspline"
       id="path-effect8986"
       is_visible="true"
       weight="33.333333"
       steps="2"
       helper_size="0"
       apply_no_weight="true"
       apply_with_weight="true"
       only_selected="false" />
    <marker
       inkscape:stockid="Arrow1Send"
       orient="auto"
       refY="0"
       refX="0"
       id="marker8272"
       style="overflow:visible"
       inkscape:isstock="true">
      <path
         id="path8270"
         d="M 0,0 5,-5 -12.5,0 5,5 Z"
         style="fill:#008000;fill-opacity:1;fill-rule:evenodd;stroke:#008000;stroke-width:1.00000003pt;stroke-opacity:1"
         transform="matrix(-0.2,0,0,-0.2,-1.2,0)"
         inkscape:connector-curvature="0" />
    </marker>
    <inkscape:path-effect
       effect="bspline"
       id="path-effect8268"
       is_visible="true"
       weight="33.333333"
       steps="2"
       helper_size="0"
       apply_no_weight="true"
       apply_with_weight="true"
       only_selected="false" />
    <inkscape:path-effect
       only_selected="false"
       apply_with_weight="true"
       apply_no_weight="true"
       helper_size="0"
       steps="2"
       weight="33.333333"
       is_visible="true"
       id="path-effect6394"
       effect="bspline" />
    <inkscape:path-effect
       effect="bspline"
       id="path-effect5630"
       is_visible="true"
       weight="33.333333"
       steps="2"
       helper_size="0"
       apply_no_weight="true"
       apply_with_weight="true"
       only_selected="false" />
    <inkscape:path-effect
       only_selected="false"
       apply_with_weight="true"
       apply_no_weight="true"
       helper_size="0"
       steps="2"
       weight="33.333333"
       is_visible="true"
       id="path-effect4696"
       effect="bspline" />
    <inkscape:path-effect
       effect="bspline"
       id="path-effect3530"
       is_visible="true"
       weight="33.333333"
       steps="2"
       helper_size="0"
       apply_no_weight="true"
       apply_with_weight="true"
       only_selected="false" />
    <inkscape:path-effect
       only_selected="false"
       apply_with_weight="true"
       apply_no_weight="true"
       helper_size="0"
       steps="2"
       weight="33.333333"
       is_visible="true"
       id="path-effect2864"
       effect="bspline" />
    <inkscape:path-effect
       effect="bspline"
       id="path-effect2386"
       is_visible="true"
       weight="33.333333"
       steps="2"
       helper_size="0"
       apply_no_weight="true"
       apply_with_weight="true"
       only_selected="false" />
    <inkscape:path-effect
       only_selected="false"
       apply_with_weight="true"
       apply_no_weight="true"
       helper_size="0"
       steps="2"
       weight="33.333333"
       is_visible="true"
       id="path-effect1742"
       effect="bspline" />
    <inkscape:path-effect
       effect="bspline"
       id="path-effect1334"
       is_visible="true"
       weight="33.333333"
       steps="2"
       helper_size="0"
       apply_no_weight="true"
       apply_with_weight="true"
       only_selected="false" />
    <inkscape:path-effect
       effect="bspline"
       id="path-effect819"
       is_visible="true"
       weight="33.333333"
       steps="2"
       helper_size="0"
       apply_no_weight="true"
       apply_with_weight="true"
       only_selected="false" />
    <inkscape:path-effect
       effect="bspline"
       id="path-effect819-3"
       is_visible="true"
       weight="33.333333"
       steps="2"
       helper_size="0"
       apply_no_weight="true"
       apply_with_weight="true"
       only_selected="false" />
    <inkscape:path-effect
       effect="bspline"
       id="path-effect1369"
       is_visible="true"
       weight="33.333333"
       steps="2"
       helper_size="0"
       apply_no_weight="true"
       apply_with_weight="true"
       only_selected="false" />
    <inkscape:path-effect
       effect="bspline"
       id="path-effect1371"
       is_visible="true"
       weight="33.333333"
       steps="2"
       helper_size="0"
       apply_no_weight="true"
       apply_with_weight="true"
       only_selected="false" />
    <inkscape:path-effect
       effect="bspline"
       id="path-effect1373"
       is_visible="true"
       weight="33.333333"
       steps="2"
       helper_size="0"
       apply_no_weight="true"
       apply_with_weight="true"
       only_selected="false" />
    <inkscape:path-effect
       effect="bspline"
       id="path-effect1375"
       is_visible="true"
       weight="33.333333"
       steps="2"
       helper_size="0"
       apply_no_weight="true"
       apply_with_weight="true"
       only_selected="false" />
    <inkscape:path-effect
       effect="bspline"
       id="path-effect1377"
       is_visible="true"
       weight="33.333333"
       steps="2"
       helper_size="0"
       apply_no_weight="true"
       apply_with_weight="true"
       only_selected="false" />
    <inkscape:path-effect
       effect="bspline"
       id="path-effect819-3-0"
       is_visible="true"
       weight="33.333333"
       steps="2"
       helper_size="0"
       apply_no_weight="true"
       apply_with_weight="true"
       only_selected="false" />
    <marker
       inkscape:isstock="true"
       style="overflow:visible"
       id="marker2929-0"
       refX="0"
       refY="0"
       orient="auto"
       inkscape:stockid="Arrow1Send">
      <path
         inkscape:connector-curvature="0"
         transform="matrix(-0.2,0,0,-0.2,-1.2,0)"
         style="fill:#008000;fill-opacity:1;fill-rule:evenodd;stroke:#008000;stroke-width:1.00000003pt;stroke-opacity:1"
         d="M 0,0 5,-5 -12.5,0 5,5 Z"
         id="path2927-2" />
    </marker>
    <inkscape:path-effect
       effect="bspline"
       id="path-effect1704-8"
       is_visible="true"
       weight="33.333333"
       steps="2"
       helper_size="0"
       apply_no_weight="true"
       apply_with_weight="true"
       only_selected="false" />
  </defs>
  <sodipodi:namedview
     id="base"
     pagecolor="#ffffff"
     bordercolor="#666666"
     borderopacity="1.0"
     inkscape:pageopacity="0.0"
     inkscape:pageshadow="2"
     inkscape:zoom="0.90509668"
     inkscape:cx="534.54814"
     inkscape:cy="103.42651"
     inkscape:document-units="mm"
     inkscape:current-layer="layer1"
     inkscape:document-rotation="0"
     showgrid="false"
     inkscape:window-width="1895"
     inkscape:window-height="1056"
     inkscape:window-x="0"
     inkscape:window-y="0"
     inkscape:window-maximized="1"
     fit-margin-top="0"
     fit-margin-left="0"
     fit-margin-right="0"
     fit-margin-bottom="0"
     showborder="true" />
  <metadata
     id="metadata5">
    <rdf:RDF>
      <cc:Work
         rdf:about="">
        <dc:format>image/svg+xml</dc:format>
        <dc:type
           rdf:resource="http://purl.org/dc/dcmitype/StillImage" />
        <dc:title></dc:title>
      </cc:Work>
    </rdf:RDF>
  </metadata>
  <g
     inkscape:label="Layer 1"
     inkscape:groupmode="layer"
     id="layer1"
     transform="translate(-41.198547,-107.67549)">
    <rect
       style="font-variation-settings:normal;vector-effect:none;fill:#ffffff;stroke:#00ffff;stroke-width:0.62940317;stroke-linecap:round;stroke-linejoin:round;stroke-miterlimit:4;stroke-dasharray:none"
       id="rect17457"
       width="216.21283"
       height="141.50035"
       x="41.513248"
       y="107.99019" />
    <flowRoot
       xml:space="preserve"
       id="flowRoot1111"
       style="font-size:16px;line-height:119.00000572%;font-family:sans-serif;-inkscape-font-specification:sans-serif;font-variation-settings:normal;text-align:center;writing-mode:lr-tb;text-anchor:middle;vector-effect:none;fill:#000000;stroke:#000000;stroke-width:0.94110239;stroke-linecap:round;stroke-linejoin:round"><flowRegion
         id="flowRegion1113"><rect
           id="rect1115"
           width="218.69649"
           height="176.4931"
           x="304.78076"
           y="227.29132" /></flowRegion><flowPara
         id="flowPara1117" /></flowRoot>    <text
       id="text909"
       y="206.39629"
       x="84.807121"
       style="font-size:4.23333311px;line-height:119.00000572%;font-family:sans-serif;-inkscape-font-specification:sans-serif;font-variation-settings:normal;text-align:center;writing-mode:lr-tb;text-anchor:middle;opacity:1;vector-effect:none;fill:#000000;stroke:#000000;stroke-width:0.249;stroke-linecap:round;stroke-linejoin:round"
       xml:space="preserve"><tspan
         style="font-size:4.23333311px;fill:#000000;stroke-width:0.249"
         y="206.39629"
         x="84.807121"
         id="tspan907"
         sodipodi:role="line">Main</tspan></text>
    <text
       xml:space="preserve"
       style="font-size:16.93333244px;line-height:119.00000572%;font-family:sans-serif;-inkscape-font-specification:sans-serif;font-variation-settings:normal;text-align:center;writing-mode:lr-tb;text-anchor:middle;vector-effect:none;fill:#00ffff;stroke:#00ffff;stroke-width:0.2;stroke-linecap:round;stroke-linejoin:round;stroke-miterlimit:4;stroke-dasharray:none"
       x="184.63582"
       y="167.21947"
       id="text17461"><tspan
         sodipodi:role="line"
         x="184.63582"
         y="167.21947"
         style="font-size:16.93333244px;fill:#00ffff;stroke:#00ffff;stroke-width:0.2;stroke-miterlimit:4;stroke-dasharray:none"
         id="tspan17463">Gui/Tracker</tspan><tspan
         sodipodi:role="line"
         x="184.63582"
         y="187.37013"
         style="font-size:16.93333244px;fill:#00ffff;stroke:#00ffff;stroke-width:0.2;stroke-miterlimit:4;stroke-dasharray:none"
         id="tspan9086">multi-threading</tspan></text>
    <g
       id="g4033"
       transform="translate(-47.609636,5.2916669)">
      <ellipse
         transform="rotate(-45)"
         style="font-variation-settings:normal;opacity:1;vector-effect:none;fill:#ffffff;stroke:#000000;stroke-width:0.15013231;stroke-linecap:round;stroke-linejoin:round"
         id="ellipse1692"
         cx="-39.147549"
         cy="205.46791"
         rx="11.924934"
         ry="11.924933" />
      <text
         xml:space="preserve"
         style="font-size:4.23333311px;line-height:119.00000572%;font-family:sans-serif;-inkscape-font-specification:sans-serif;font-variation-settings:normal;text-align:center;writing-mode:lr-tb;text-anchor:middle;opacity:1;vector-effect:none;fill:#000000;stroke:#000000;stroke-width:0.249;stroke-linecap:round;stroke-linejoin:round"
         x="117.58202"
         y="174.46877"
         id="text1696"><tspan
           sodipodi:role="line"
           x="117.58202"
           y="174.46877"
           style="fill:#000000;stroke-width:0.249"
           id="tspan1694">Queue</tspan></text>
    </g>
    <flowRoot
       xml:space="preserve"
       id="flowRoot1379"
       style="font-size:64px;line-height:119.00000572%;font-family:sans-serif;-inkscape-font-specification:sans-serif;text-align:center;writing-mode:lr-tb;text-anchor:middle;vector-effect:none;fill:#000000;stroke:#000000;stroke-width:3.64724398;stroke-linecap:round;stroke-linejoin:round"
       transform="matrix(0.26458333,0,0,0.26458333,-36.145419,78.46946)"><flowRegion
         id="flowRegion1381"><rect
           id="rect1383"
           width="274.03232"
           height="94.117424"
           x="1.4456651"
           y="279.43478" /></flowRegion><flowPara
         id="flowPara1385" /></flowRoot>    <g
       id="g9420">
      <g
         id="g1070"
         transform="translate(36.62605,91.52848)"
         style="opacity:1">
        <rect
           y="109.39529"
           x="25.65984"
           height="33.34483"
           width="45.054813"
           id="rect1066"
           style="font-variation-settings:normal;vector-effect:none;fill:none;stroke:#000000;stroke-width:0.249;stroke-linecap:round;stroke-linejoin:round" />
        <path
           inkscape:original-d="m 25.612641,117.67847 c 15.051298,-2.7e-4 45.1531,0 45.1531,0"
           inkscape:path-effect="#path-effect819"
           inkscape:connector-curvature="0"
           id="path1068"
           d="m 25.612641,117.67847 c 15.051298,0 30.102067,0 45.1531,0"
           style="fill:none;fill-rule:evenodd;stroke:#000000;stroke-width:0.26458332px;stroke-linecap:butt;stroke-linejoin:miter;stroke-opacity:1" />
      </g>
      <g
         transform="translate(-27.830062,-6.2447662)"
         id="g3087"
         style="opacity:1">
        <g
           style="opacity:1"
           transform="translate(3.0727463,7.2796282)"
           id="g1109">
          <text
             xml:space="preserve"
             style="font-style:normal;font-variant:normal;font-weight:normal;font-stretch:normal;font-size:1.41111112px;line-height:119.00000572%;font-family:sans-serif;-inkscape-font-specification:'sans-serif Normal';font-variant-ligatures:normal;font-variant-caps:normal;font-variant-numeric:normal;font-feature-settings:normal;font-variation-settings:normal;text-align:center;writing-mode:lr-tb;text-anchor:middle;vector-effect:none;fill:#000000;stroke:#000000;stroke-width:0.1245;stroke-linecap:round;stroke-linejoin:round"
             x="109.30025"
             y="216.21237"
             id="text1090"><tspan
               sodipodi:role="line"
               id="tspan1088"
               x="109.30025"
               y="216.21237"
               style="font-style:normal;font-variant:normal;font-weight:normal;font-stretch:normal;font-size:1.41111112px;font-family:sans-serif;-inkscape-font-specification:'sans-serif Normal';font-variant-ligatures:normal;font-variant-caps:normal;font-variant-numeric:normal;font-feature-settings:normal;fill:#000000;stroke-width:0.1245">tracker</tspan></text>
          <g
             transform="matrix(0.26701734,0,0,0.24534969,96.703782,187.74121)"
             id="g1096">
            <rect
               style="font-variation-settings:normal;vector-effect:none;fill:none;stroke:#000000;stroke-width:0.249;stroke-linecap:round;stroke-linejoin:round"
               id="rect1092"
               width="45.054813"
               height="33.34483"
               x="25.65984"
               y="109.39529" />
            <path
               style="fill:none;fill-rule:evenodd;stroke:#000000;stroke-width:0.26458332px;stroke-linecap:butt;stroke-linejoin:miter;stroke-opacity:1"
               d="m 25.612641,117.67847 c 15.051298,0 30.102067,0 45.1531,0"
               id="path1094"
               inkscape:connector-curvature="0"
               inkscape:path-effect="#path-effect819-3"
               inkscape:original-d="m 25.612641,117.67847 c 15.051298,-2.7e-4 45.1531,0 45.1531,0" />
          </g>
        </g>
      </g>
    </g>
    <g
       id="g9427">
      <text
         xml:space="preserve"
         style="font-size:4.23333311px;line-height:119.00000572%;font-family:sans-serif;-inkscape-font-specification:sans-serif;font-variation-settings:normal;text-align:center;writing-mode:lr-tb;text-anchor:middle;opacity:1;vector-effect:none;fill:#000000;stroke:#000000;stroke-width:0.249;stroke-linecap:round;stroke-linejoin:round"
         x="84.87944"
         y="126.09251"
         id="text909-3"><tspan
           sodipodi:role="line"
           id="tspan907-5"
           x="84.87944"
           y="126.09251"
           style="font-size:4.23333311px;fill:#000000;stroke-width:0.249">gui.doit()</tspan></text>
      <g
         id="g1070-1"
         transform="translate(36.62605,11.077136)"
         style="opacity:1">
        <rect
           y="109.39529"
           x="25.65984"
           height="33.34483"
           width="45.054813"
           id="rect1066-2"
           style="font-variation-settings:normal;vector-effect:none;fill:none;stroke:#000000;stroke-width:0.249;stroke-linecap:round;stroke-linejoin:round" />
        <path
           inkscape:original-d="m 25.612641,117.67847 c 15.051298,-2.7e-4 45.1531,0 45.1531,0"
           inkscape:path-effect="#path-effect819-3"
           inkscape:connector-curvature="0"
           id="path1068-7"
           d="m 25.612641,117.67847 c 15.051298,0 30.102067,0 45.1531,0"
           style="fill:none;fill-rule:evenodd;stroke:#000000;stroke-width:0.26458332px;stroke-linecap:butt;stroke-linejoin:miter;stroke-opacity:1" />
      </g>
    </g>
    <g
       style="opacity:1"
       id="g3152"
       transform="translate(-19.106635,-85.341782)">
      <g
         transform="translate(-10.066939,-0.86614023)"
         id="g3087-9">
        <text
           id="text1090-6"
           y="223.59555"
           x="113.71651"
           style="font-style:normal;font-variant:normal;font-weight:normal;font-stretch:normal;font-size:1.41111112px;line-height:119.00000572%;font-family:sans-serif;-inkscape-font-specification:'sans-serif Normal';font-variant-ligatures:normal;font-variant-caps:normal;font-variant-numeric:normal;font-feature-settings:normal;font-variation-settings:normal;text-align:center;writing-mode:lr-tb;text-anchor:middle;opacity:1;vector-effect:none;fill:#000000;stroke:#000000;stroke-width:0.1245;stroke-linecap:round;stroke-linejoin:round"
           xml:space="preserve"><tspan
             style="font-style:normal;font-variant:normal;font-weight:normal;font-stretch:normal;font-size:1.41111112px;font-family:sans-serif;-inkscape-font-specification:'sans-serif Normal';font-variant-ligatures:normal;font-variant-caps:normal;font-variant-numeric:normal;font-feature-settings:normal;fill:#000000;stroke-width:0.1245"
             y="223.59555"
             x="113.71651"
             id="tspan1088-0"
             sodipodi:role="line">PIDTuningGui</tspan></text>
        <g
           id="g1096-6"
           transform="matrix(0.26701734,0,0,0.24534969,101.12004,195.12439)"
           style="opacity:1">
          <rect
             y="109.39529"
             x="25.65984"
             height="33.34483"
             width="45.054813"
             id="rect1092-2"
             style="font-variation-settings:normal;vector-effect:none;fill:none;stroke:#000000;stroke-width:0.249;stroke-linecap:round;stroke-linejoin:round" />
          <path
             inkscape:original-d="m 25.612641,117.67847 c 15.051298,-2.7e-4 45.1531,0 45.1531,0"
             inkscape:path-effect="#path-effect819-3-0"
             inkscape:connector-curvature="0"
             id="path1094-6"
             d="m 25.612641,117.67847 c 15.051298,0 30.102067,0 45.1531,0"
             style="fill:none;fill-rule:evenodd;stroke:#000000;stroke-width:0.26458332px;stroke-linecap:butt;stroke-linejoin:miter;stroke-opacity:1" />
        </g>
      </g>
    </g>
    <path
       style="fill:none;fill-opacity:1;fill-rule:evenodd;stroke:#ff6600;stroke-width:0.26499999;stroke-linecap:butt;stroke-linejoin:miter;stroke-miterlimit:4;stroke-dasharray:none;stroke-opacity:1;marker-end:url(#marker9969)"
       d="m 78.798086,143.93771 c -2.960663,7.51098 -5.92145,15.02227 -8.882369,22.53389"
       id="path9625"
       inkscape:connector-curvature="0"
       inkscape:path-effect="#path-effect9627"
       inkscape:original-d="m 78.798086,143.93771 c -2.960524,7.51103 -5.921314,15.02232 -8.882369,22.53389" />
    <path
       style="fill:none;fill-opacity:1;fill-rule:evenodd;stroke:#ff6600;stroke-width:0.26499999;stroke-linecap:butt;stroke-linejoin:miter;stroke-miterlimit:4;stroke-dasharray:none;stroke-opacity:1;marker-end:url(#marker8914)"
       d="m 72.56518,189.92467 c 2.075835,6.98111 4.15172,13.96239 6.227657,20.94385"
       id="path9629"
       inkscape:connector-curvature="0"
       inkscape:path-effect="#path-effect9631"
       inkscape:original-d="m 72.56518,189.92467 c 2.076151,6.98102 4.152035,13.9623 6.227657,20.94385" />
    <path
       style="fill:none;fill-opacity:1;fill-rule:evenodd;stroke:#ff6600;stroke-width:0.26499999;stroke-linecap:butt;stroke-linejoin:miter;stroke-miterlimit:4;stroke-dasharray:none;stroke-opacity:1;marker-end:url(#marker9809)"
       d="m 90.828502,215.61617 c 2.993034,-12.04692 5.985989,-24.09352 5.985897,-36.03998 -9.2e-5,-11.94647 -2.992988,-23.79245 -5.985897,-35.63848"
       id="path9633"
       inkscape:connector-curvature="0"
       inkscape:path-effect="#path-effect9635"
       inkscape:original-d="m 90.828502,215.61617 c 2.993221,-12.04687 5.986177,-24.09347 8.978868,-36.13981 -2.992752,-11.84672 -5.985647,-23.6927 -8.978868,-35.53865" />
    <path
       style="fill:none;fill-opacity:1;fill-rule:evenodd;stroke:#ff6600;stroke-width:0.26499999;stroke-linecap:butt;stroke-linejoin:miter;stroke-miterlimit:4;stroke-dasharray:none;stroke-opacity:1;marker-end:url(#marker9655)"
       d="m 78.792837,210.86852 c -1.174086,1.72665 -2.348386,3.45362 -2.349643,4.58379 -0.0013,1.13017 1.170565,1.66318 2.34229,2.19614"
       id="path9637"
       inkscape:connector-curvature="0"
       inkscape:path-effect="#path-effect9639"
       inkscape:original-d="m 78.792837,210.86852 c -1.174031,1.72669 -2.348326,3.45366 -3.522885,5.18088 1.17213,0.53276 2.343952,1.06577 3.515532,1.59905" />
    <text
       xml:space="preserve"
       style="font-style:normal;font-variant:normal;font-weight:normal;font-stretch:normal;font-size:3.52777767px;line-height:119.00000572%;font-family:sans-serif;-inkscape-font-specification:'sans-serif Normal';font-variant-ligatures:normal;font-variant-caps:normal;font-variant-numeric:normal;font-feature-settings:normal;text-align:center;writing-mode:lr-tb;text-anchor:middle;vector-effect:none;fill:#ff6600;fill-opacity:1;stroke:#ff6600;stroke-width:0.26499999;stroke-linecap:round;stroke-linejoin:round;stroke-miterlimit:4;stroke-dasharray:none;stroke-opacity:1"
       x="84.147919"
       y="159.98462"
       id="text10141"><tspan
         sodipodi:role="line"
         id="tspan10139"
         x="84.147919"
         y="159.98462"
         style="font-size:3.52777767px;fill:#ff6600;fill-opacity:1;stroke-width:0.26499999">K value updates</tspan></text>
  </g>
</svg>
